…
Finally, the plot looks nice and shows us that the continent with the lowest GDP's per capita over time is Africa, despite it's composed of 52 countries. Compared to the 30 European countries, and their higher values, the differences are concerning.

With the use of `dplyr`, we can go further by focusing our analysis on a single continent. Let's use the information related to the Americas, and create a subset called `Americas`.

``` r
Americas <- filter(gapminder, continent == "Americas")
Americas
```

    ## # A tibble: 300 x 6
    ##      country continent  year lifeExp      pop gdpPercap
    ##       <fctr>    <fctr> <int>   <dbl>    <int>     <dbl>
    ##  1 Argentina  Americas  1952  62.485 17876956  5911.315
    ##  2 Argentina  Americas  1957  64.399 19610538  6856.856
    ##  3 Argentina  Americas  1962  65.142 21283783  7133.166
    ##  4 Argentina  Americas  1967  65.634 22934225  8052.953
    ##  5 Argentina  Americas  1972  67.065 24779799  9443.039
    ##  6 Argentina  Americas  1977  68.481 26983828 10079.027
    ##  7 Argentina  Americas  1982  69.942 29341374  8997.897
    ##  8 Argentina  Americas  1987  70.774 31620918  9139.671
    ##  9 Argentina  Americas  1992  71.868 33958947  9308.419
    ## 10 Argentina  Americas  1997  73.275 36203463 10967.282
    ## # ... with 290 more rows
What if we're interested in the evolution of the `gdpPercap` of countries involved in certain trade agreements in the Americas? For instance, what has been the `gdpPercap` evolution before and after **NAFTA** and **MERCOSUR** for their country members?

In the case of **NAFTA**, the agreement came into force in 1994 and the founding countries are the United States, Canada, and Mexico. For **MERCOSUR**, the agreement came into force in 1991 and the founding countries are Argentina, Brazil, Paraguay, and Uruguay.

From the dataset `Americas`, we're going to extract those 7 countries in a new dataset called `trade.agreements` and select the `country`, `year`, and `gdpPercap` columns:

``` r
trade.agreements <- Americas %>% 
  filter(country %in% c("United States", "Canada", "Mexico", 
                          "Argentina", "Brazil", "Paraguay", "Uruguay")) %>%
  select(country, year, gdpPercap)
trade.agreements 
```

    ## # A tibble: 84 x 3
    ##      country  year gdpPercap
    ##       <fctr> <int>     <dbl>
    ##  1 Argentina  1952  5911.315
    ##  2 Argentina  1957  6856.856
    ##  3 Argentina  1962  7133.166
    ##  4 Argentina  1967  8052.953
    ##  5 Argentina  1972  9443.039
    ##  6 Argentina  1977 10079.027
    ##  7 Argentina  1982  8997.897
    ##  8 Argentina  1987  9139.671
    ##  9 Argentina  1992  9308.419
    ## 10 Argentina  1997 10967.282
    ## # ... with 74 more rows

Now, we have to create additional column indicating what trade agreement the country belongs to (`Agreement`):

``` r
trade.agreements <- trade.agreements %>% 
  mutate(Agreement = if_else(country %in% c("United States", "Canada", "Mexico"), "NAFTA", "MERCOSUR"))
trade.agreements
```

    ## # A tibble: 84 x 4
    ##      country  year gdpPercap Agreement
    ##       <fctr> <int>     <dbl>     <chr>
    ##  1 Argentina  1952  5911.315  MERCOSUR
    ##  2 Argentina  1957  6856.856  MERCOSUR
    ##  3 Argentina  1962  7133.166  MERCOSUR
    ##  4 Argentina  1967  8052.953  MERCOSUR
    ##  5 Argentina  1972  9443.039  MERCOSUR
    ##  6 Argentina  1977 10079.027  MERCOSUR
    ##  7 Argentina  1982  8997.897  MERCOSUR
    ##  8 Argentina  1987  9139.671  MERCOSUR
    ##  9 Argentina  1992  9308.419  MERCOSUR
    ## 10 Argentina  1997 10967.282  MERCOSUR
    ## # ... with 74 more rows
…
The correct way is replacing `==` with `%in%`:

``` r
filter(gapminder, country %in% c("Rwanda", "Afghanistan"))
```

    ## # A tibble: 24 x 6
    ##        country continent  year lifeExp      pop gdpPercap
    ##         <fctr>    <fctr> <int>   <dbl>    <int>     <dbl>
    ##  1 Afghanistan      Asia  1952  28.801  8425333  779.4453
    ##  2 Afghanistan      Asia  1957  30.332  9240934  820.8530
    ##  3 Afghanistan      Asia  1962  31.997 10267083  853.1007
    ##  4 Afghanistan      Asia  1967  34.020 11537966  836.1971
    ##  5 Afghanistan      Asia  1972  36.088 13079460  739.9811
    ##  6 Afghanistan      Asia  1977  38.438 14880372  786.1134
    ##  7 Afghanistan      Asia  1982  39.854 12881816  978.0114
    ##  8 Afghanistan      Asia  1987  40.822 13867957  852.3959
    ##  9 Afghanistan      Asia  1992  41.674 16317921  649.3414
    ## 10 Afghanistan      Asia  1997  41.763 22227415  635.3414
    ## # ... with 14 more rows
